<?xml version="1.0" encoding="UTF-8" standalone="no"?>
<!DOCTYPE svg PUBLIC "-//W3C//DTD SVG 1.1//EN" "http://www.w3.org/Graphics/SVG/1.1/DTD/svg11.dtd">
<svg width="100%" height="100%" viewBox="0 0 961 1000" version="1.1" xmlns="http://www.w3.org/2000/svg" xmlns:xlink="http://www.w3.org/1999/xlink" xml:space="preserve" xmlns:serif="http://www.serif.com/" style="fill-rule:evenodd;clip-rule:evenodd;stroke-linejoin:round;stroke-miterlimit:2;">
    <g transform="matrix(0.818536,-0.311464,0.311464,0.818536,-149.854,371.914)">
        <path d="M537.57,43.85C582.74,27.06 637.73,41.5 684.69,62.56C832.18,128.72 939.63,254.31 1025,382.26C1055.91,428.59 1085.27,476.96 1096.89,528.68C1120.55,633.95 1058.84,742.93 953.89,781.12C918.2,794.12 878.99,799.45 839.72,802.42C769.89,807.71 697.59,805.61 628.32,786.02C578.92,772.02 532.19,749.5 487.37,724.62C362.2,655.1 247.89,564.82 165.58,454.54C129.48,406.17 98.94,351.64 98.06,295.83C97.18,240.02 133.55,183.94 193.39,174.45C218.13,170.53 244.3,174.61 269.83,178.81C307.42,185 345.52,191.51 382.68,188.81C421.07,186 471,171 478,134.35C485.41,95 492.46,60.62 537.57,43.85Z" style="fill:rgb(185,232,218);fill-opacity:0.2;fill-rule:nonzero;"/>
    </g>
    <g transform="matrix(1.30804,0,0,1.30804,0,0)">
        <g transform="matrix(0.80717,0,0,0.80717,72.3246,74.494)">
            <path d="M608.5,366.44L366.37,308.13L366.37,764.5L608.5,701.12L608.5,366.44Z" style="fill:url(#_Linear1);fill-rule:nonzero;"/>
        </g>
        <g transform="matrix(0.80717,0,0,0.80717,72.3246,74.494)">
            <path d="M608.5,366.44L366.37,308.13L366.37,764.5L608.5,701.12L608.5,366.44Z" style="fill:url(#_Linear2);fill-rule:nonzero;"/>
        </g>
        <g transform="matrix(0.80717,0,0,0.80717,72.3246,74.494)">
            <path d="M124.23,366.44L366.37,308.13L366.37,764.5L124.23,702.38L124.23,366.44Z" style="fill:url(#_Linear3);fill-rule:nonzero;"/>
        </g>
        <g transform="matrix(0.80717,0,0,0.80717,72.3246,74.494)">
            <path d="M124.23,366.44L366.37,308.13L366.37,764.5L124.23,702.38L124.23,366.44Z" style="fill:url(#_Linear4);fill-rule:nonzero;"/>
        </g>
        <g transform="matrix(0.80717,0,0,0.80717,72.3246,74.494)">
            <path d="M366.37,308.13L491.87,204.18L734,266.3L608.5,366.44L366.37,308.13Z" style="fill:url(#_Linear5);fill-rule:nonzero;"/>
        </g>
        <g transform="matrix(0.80717,0,0,0.80717,72.3246,74.494)">
            <path d="M0,267.56L124.23,366.44L366.37,308.13L243.4,204.18L0,267.56Z" style="fill:url(#_Linear6);fill-rule:nonzero;"/>
        </g>
        <g transform="matrix(0.80717,0,0,0.80717,72.3246,74.494)">
            <path d="M0,267.56L124.23,366.44L366.37,308.13L243.4,204.18L0,267.56Z" style="fill:url(#_Linear7);fill-rule:nonzero;"/>
        </g>
        <g transform="matrix(0.80717,0,0,0.80717,72.3246,74.494)">
            <path d="M124.23,366.44L124.23,702.38L366.37,764.5L366.37,431.1L124.23,366.44Z" style="fill:url(#_Linear8);fill-rule:nonzero;"/>
        </g>
        <g transform="matrix(0.80717,0,0,0.80717,72.3246,74.494)">
            <path d="M608.5,701.12L366.37,764.5L366.37,431.1L608.5,366.44L608.5,701.12Z" style="fill:url(#_Linear9);fill-rule:nonzero;"/>
        </g>
        <g transform="matrix(0.80717,0,0,0.80717,72.3246,74.494)">
            <path d="M608.5,701.12L366.37,764.5L366.37,431.1L608.5,366.44L608.5,701.12Z" style="fill:url(#_Linear10);fill-rule:nonzero;"/>
        </g>
        <g transform="matrix(0.80717,0,0,0.80717,72.3246,74.494)">
            <path d="M512.15,589.56L512.15,699.85L608.5,673.23L608.5,562.94L512.15,589.56Z" style="fill:url(#_Linear11);fill-rule:nonzero;"/>
        </g>
        <g transform="matrix(0.80717,0,0,0.80717,72.3246,74.494)">
            <path d="M121.07,540.75L256.71,574.98L365.73,486.24L365.73,431.73L123.6,370.88L121.07,540.75Z" style="fill:url(#_Linear12);fill-rule:nonzero;"/>
        </g>
        <g transform="matrix(0.80717,0,0,0.80717,72.3246,74.494)">
            <path d="M610.4,540.75L474.75,574.98L365.73,486.24L365.73,431.73L607.86,370.88L610.4,540.75Z" style="fill:url(#_Linear13);fill-rule:nonzero;"/>
        </g>
        <g transform="matrix(0.80717,0,0,0.80717,72.3246,74.494)">
            <path d="M124.23,366.44L0,469.13L242.13,529.98L366.37,431.1L124.23,366.44Z" style="fill:url(#_Linear14);fill-rule:nonzero;"/>
        </g>
        <g transform="matrix(0.80717,0,0,0.80717,72.3246,74.494)">
            <path d="M608.5,366.44L734,469.13L493.14,529.98L366.37,431.1L608.5,366.44Z" style="fill:url(#_Linear15);fill-rule:nonzero;"/>
        </g>
        <g transform="matrix(0.80717,0,0,0.80717,72.3246,74.494)">
            <path d="M608.5,366.44L734,469.13L493.14,529.98L366.37,431.1L608.5,366.44Z" style="fill:url(#_Linear16);fill-rule:nonzero;"/>
        </g>
        <g transform="matrix(0.80717,0,0,0.80717,72.3246,74.494)">
            <path d="M608.94,363.36L368.88,305.54L368.88,758.01L608.94,695.17L608.94,363.36Z" style="fill:rgb(164,207,195);fill-rule:nonzero;"/>
        </g>
        <g transform="matrix(0.80717,0,0,0.80717,72.3246,74.494)">
            <path d="M608.94,363.36L368.88,305.54L368.88,758.01L608.94,695.17L608.94,363.36Z" style="fill:rgb(164,207,195);fill-opacity:0.15;fill-rule:nonzero;"/>
        </g>
        <g transform="matrix(0.80717,0,0,0.80717,72.3246,74.494)">
            <path d="M128.83,363.36L368.88,305.54L368.88,758.01L128.83,696.42L128.83,363.36Z" style="fill:rgb(164,207,195);fill-rule:nonzero;"/>
        </g>
        <g transform="matrix(0.80717,0,0,0.80717,72.3246,74.494)">
            <path d="M128.83,361.36L368.88,303.54L368.88,758.01L128.83,696.42L128.83,361.36Z" style="fill-opacity:0.25;fill-rule:nonzero;"/>
        </g>
        <g transform="matrix(0.80717,0,0,0.80717,72.3246,74.494)">
            <path d="M366.88,307.54L493.31,202.48L733.37,264.07L606.94,365.36L366.88,307.54Z" style="fill:rgb(182,230,216);fill-rule:nonzero;"/>
        </g>
        <g transform="matrix(0.80717,0,0,0.80717,72.3246,74.494)">
            <path d="M7.66,267.32L130.83,365.36L370.88,307.54L248.97,204.48L7.66,267.32Z" style="fill:rgb(182,230,216);fill-rule:nonzero;"/>
        </g>
        <g transform="matrix(0.80717,0,0,0.80717,72.3246,74.494)">
            <path d="M5.66,265.32L131.83,365.36L371.88,307.54L246.97,202.48L5.66,265.32Z" style="fill-opacity:0.05;fill-rule:nonzero;"/>
        </g>
        <g transform="matrix(0.80717,0,0,0.80717,72.3246,74.494)">
            <path d="M128.83,363.36L128.83,696.42L368.88,758.01L372.12,427.46L128.83,363.36Z" style="fill:rgb(164,207,195);fill-rule:nonzero;"/>
        </g>
        <g transform="matrix(0.80717,0,0,0.80717,72.3246,74.494)">
            <path d="M608.94,695.17L368.88,758.01L368.88,427.46L608.94,363.36L608.94,695.17Z" style="fill:rgb(164,207,195);fill-rule:nonzero;"/>
        </g>
        <g transform="matrix(0.80717,0,0,0.80717,72.3246,74.494)">
            <path d="M608.94,695.17L368.88,758.01L368.88,427.46L608.94,363.36L608.94,695.17Z" style="fill-opacity:0.15;fill-rule:nonzero;"/>
        </g>
        <g transform="matrix(0.80717,0,0,0.80717,72.3246,74.494)">
            <path d="M513.42,584.57L513.42,693.91L608.94,667.52L608.94,558.17L513.42,584.57Z" style="fill-opacity:0.07;fill-rule:nonzero;"/>
        </g>
        <g transform="matrix(0.80717,0,0,0.80717,72.3246,74.494)">
            <path d="M125.69,536.18L260.17,570.11L368.26,482.13L368.26,428.09L128.2,367.76L125.69,536.18Z" style="fill-opacity:0.1;fill-rule:nonzero;"/>
        </g>
        <g transform="matrix(0.80717,0,0,0.80717,72.3246,74.494)">
            <path d="M610.83,536.18L476.35,570.11L368.26,482.13L368.26,428.09L608.32,367.76L610.83,536.18Z" style="fill-opacity:0.1;fill-rule:nonzero;"/>
        </g>
        <g transform="matrix(0.80717,0,0,0.80717,72.3246,74.494)">
            <path d="M128.83,363.36L5.66,465.16L245.71,525.49L368.88,427.46L128.83,363.36Z" style="fill:rgb(182,230,216);fill-rule:nonzero;"/>
        </g>
        <g transform="matrix(0.80717,0,0,0.80717,72.3246,74.494)">
            <path d="M608.94,363.36L733.37,465.16L494.57,525.49L368.88,427.46L608.94,363.36Z" style="fill:rgb(182,230,216);fill-rule:nonzero;"/>
        </g>
        <g transform="matrix(0.80717,0,0,0.80717,72.3246,74.494)">
            <path d="M608.94,363.36L733.37,465.16L494.57,525.49L368.88,427.46L608.94,363.36Z" style="fill-opacity:0.07;fill-rule:nonzero;"/>
        </g>
        <g transform="matrix(0.52406,0,0,0.52406,9.83669,55.9646)">
            <path d="M724.17,434.3L655,434.3L655,366.14L724.22,366.14L724.17,434.3ZM723.17,331.53L656,331.53C656,225.61 756.68,231.8 756.68,164.79C756.68,127.88 726.47,98.31 689.56,98.31C652.65,98.31 622.45,130.19 622.45,165.84L555.33,165.84C555.33,165.763 555.33,165.687 555.33,165.61C555.33,92.1 615.82,31.61 689.33,31.61C689.407,31.61 689.483,31.61 689.56,31.61C763.7,31.61 823.79,90.76 823.79,164.79C823.79,248.58 723.12,258.12 723.12,331.53L723.17,331.53Z" style="fill:rgb(14,133,85);fill-rule:nonzero;"/>
        </g>
    </g>
    <defs>
        <linearGradient id="_Linear1" x1="0" y1="0" x2="1" y2="0" gradientUnits="userSpaceOnUse" gradientTransform="matrix(242.13,0,0,242.13,366.37,536.32)"><stop offset="0" style="stop-color:rgb(128,128,128);stop-opacity:0.25"/><stop offset="0.54" style="stop-color:rgb(128,128,128);stop-opacity:0.12"/><stop offset="1" style="stop-color:rgb(128,128,128);stop-opacity:0.1"/></linearGradient>
        <linearGradient id="_Linear2" x1="0" y1="0" x2="1" y2="0" gradientUnits="userSpaceOnUse" gradientTransform="matrix(242.13,0,0,242.13,366.37,536.32)"><stop offset="0" style="stop-color:rgb(128,128,128);stop-opacity:0.02"/><stop offset="0.54" style="stop-color:rgb(128,128,128);stop-opacity:0.01"/><stop offset="1" style="stop-color:rgb(128,128,128);stop-opacity:0.01"/></linearGradient>
        <linearGradient id="_Linear3" x1="0" y1="0" x2="1" y2="0" gradientUnits="userSpaceOnUse" gradientTransform="matrix(242.14,0,0,242.14,124.23,536.32)"><stop offset="0" style="stop-color:rgb(128,128,128);stop-opacity:0.25"/><stop offset="0.54" style="stop-color:rgb(128,128,128);stop-opacity:0.12"/><stop offset="1" style="stop-color:rgb(128,128,128);stop-opacity:0.1"/></linearGradient>
        <linearGradient id="_Linear4" x1="0" y1="0" x2="1" y2="0" gradientUnits="userSpaceOnUse" gradientTransform="matrix(242.14,0,0,242.14,124.23,536.32)"><stop offset="0" style="stop-color:rgb(128,128,128);stop-opacity:0.04"/><stop offset="0.54" style="stop-color:rgb(128,128,128);stop-opacity:0.02"/><stop offset="1" style="stop-color:rgb(128,128,128);stop-opacity:0.02"/></linearGradient>
        <linearGradient id="_Linear5" x1="0" y1="0" x2="1" y2="0" gradientUnits="userSpaceOnUse" gradientTransform="matrix(367.63,0,0,367.63,366.37,285.31)"><stop offset="0" style="stop-color:rgb(128,128,128);stop-opacity:0.25"/><stop offset="0.54" style="stop-color:rgb(128,128,128);stop-opacity:0.12"/><stop offset="1" style="stop-color:rgb(128,128,128);stop-opacity:0.1"/></linearGradient>
        <linearGradient id="_Linear6" x1="0" y1="0" x2="1" y2="0" gradientUnits="userSpaceOnUse" gradientTransform="matrix(366.37,0,0,366.37,0,285.31)"><stop offset="0" style="stop-color:rgb(128,128,128);stop-opacity:0.25"/><stop offset="0.54" style="stop-color:rgb(128,128,128);stop-opacity:0.12"/><stop offset="1" style="stop-color:rgb(128,128,128);stop-opacity:0.1"/></linearGradient>
        <linearGradient id="_Linear7" x1="0" y1="0" x2="1" y2="0" gradientUnits="userSpaceOnUse" gradientTransform="matrix(366.37,0,0,366.37,0,285.31)"><stop offset="0" style="stop-color:rgb(128,128,128);stop-opacity:0.01"/><stop offset="0.54" style="stop-color:rgb(128,128,128);stop-opacity:0.01"/><stop offset="1" style="stop-color:rgb(128,128,128);stop-opacity:0"/></linearGradient>
        <linearGradient id="_Linear8" x1="0" y1="0" x2="1" y2="0" gradientUnits="userSpaceOnUse" gradientTransform="matrix(242.14,0,0,242.14,124.23,565.47)"><stop offset="0" style="stop-color:rgb(128,128,128);stop-opacity:0.25"/><stop offset="0.54" style="stop-color:rgb(128,128,128);stop-opacity:0.12"/><stop offset="1" style="stop-color:rgb(128,128,128);stop-opacity:0.1"/></linearGradient>
        <linearGradient id="_Linear9" x1="0" y1="0" x2="1" y2="0" gradientUnits="userSpaceOnUse" gradientTransform="matrix(242.13,0,0,242.13,366.37,565.47)"><stop offset="0" style="stop-color:rgb(128,128,128);stop-opacity:0.25"/><stop offset="0.54" style="stop-color:rgb(128,128,128);stop-opacity:0.12"/><stop offset="1" style="stop-color:rgb(128,128,128);stop-opacity:0.1"/></linearGradient>
        <linearGradient id="_Linear10" x1="0" y1="0" x2="1" y2="0" gradientUnits="userSpaceOnUse" gradientTransform="matrix(242.13,0,0,242.13,366.37,565.47)"><stop offset="0" style="stop-color:rgb(128,128,128);stop-opacity:0.02"/><stop offset="0.54" style="stop-color:rgb(128,128,128);stop-opacity:0.01"/><stop offset="1" style="stop-color:rgb(128,128,128);stop-opacity:0.01"/></linearGradient>
        <linearGradient id="_Linear11" x1="0" y1="0" x2="1" y2="0" gradientUnits="userSpaceOnUse" gradientTransform="matrix(96.35,0,0,96.35,512.15,631.39)"><stop offset="0" style="stop-color:rgb(128,128,128);stop-opacity:0.02"/><stop offset="0.54" style="stop-color:rgb(128,128,128);stop-opacity:0.01"/><stop offset="1" style="stop-color:rgb(128,128,128);stop-opacity:0.01"/></linearGradient>
        <linearGradient id="_Linear12" x1="0" y1="0" x2="1" y2="0" gradientUnits="userSpaceOnUse" gradientTransform="matrix(244.66,0,0,244.66,121.07,472.93)"><stop offset="0" style="stop-color:rgb(128,128,128);stop-opacity:0.02"/><stop offset="0.54" style="stop-color:rgb(128,128,128);stop-opacity:0.01"/><stop offset="1" style="stop-color:rgb(128,128,128);stop-opacity:0.01"/></linearGradient>
        <linearGradient id="_Linear13" x1="0" y1="0" x2="1" y2="0" gradientUnits="userSpaceOnUse" gradientTransform="matrix(244.67,0,0,244.67,365.73,472.93)"><stop offset="0" style="stop-color:rgb(128,128,128);stop-opacity:0.02"/><stop offset="0.54" style="stop-color:rgb(128,128,128);stop-opacity:0.01"/><stop offset="1" style="stop-color:rgb(128,128,128);stop-opacity:0.01"/></linearGradient>
        <linearGradient id="_Linear14" x1="0" y1="0" x2="1" y2="0" gradientUnits="userSpaceOnUse" gradientTransform="matrix(366.37,0,0,366.37,0,448.21)"><stop offset="0" style="stop-color:rgb(128,128,128);stop-opacity:0.25"/><stop offset="0.54" style="stop-color:rgb(128,128,128);stop-opacity:0.12"/><stop offset="1" style="stop-color:rgb(128,128,128);stop-opacity:0.1"/></linearGradient>
        <linearGradient id="_Linear15" x1="0" y1="0" x2="1" y2="0" gradientUnits="userSpaceOnUse" gradientTransform="matrix(367.63,0,0,367.63,366.37,448.21)"><stop offset="0" style="stop-color:rgb(128,128,128);stop-opacity:0.25"/><stop offset="0.54" style="stop-color:rgb(128,128,128);stop-opacity:0.12"/><stop offset="1" style="stop-color:rgb(128,128,128);stop-opacity:0.1"/></linearGradient>
        <linearGradient id="_Linear16" x1="0" y1="0" x2="1" y2="0" gradientUnits="userSpaceOnUse" gradientTransform="matrix(367.63,0,0,367.63,366.37,448.21)"><stop offset="0" style="stop-color:rgb(128,128,128);stop-opacity:0.02"/><stop offset="0.54" style="stop-color:rgb(128,128,128);stop-opacity:0.01"/><stop offset="1" style="stop-color:rgb(128,128,128);stop-opacity:0.01"/></linearGradient>
    </defs>
</svg>
